^C:\USERS\USER\SOURCE\REPOS\NEW_EXPETIMENTAL\NEW_EXPETIMENTAL\NEW_EXPETIMENTAL.CPP
C:\USERS\USER\SOURCE\REPOS\NEW_EXPETIMENTAL\NEW_EXPETIMENTAL\DEBUG\VC142.PDB
C:\USERS\USER\SOURCE\REPOS\NEW_EXPETIMENTAL\NEW_EXPETIMENTAL\DEBUG\VC142.IDB
C:\USERS\USER\SOURCE\REPOS\NEW_EXPETIMENTAL\NEW_EXPETIMENTAL\DEBUG\NEW_EXPETIMENTAL.OBJ
