^C:\USERS\USER\SOURCE\REPOS\NEW_EXPETIMENTAL\NEW_EXPETIMENTAL\DEBUG\NEW_EXPETIMENTAL.OBJ
C:\WINDOWS KITS\10\LIB\10.0.18362.0\UM\X86\KERNEL32.LIB
C:\WINDOWS KITS\10\LIB\10.0.18362.0\UM\X86\USER32.LIB
C:\WINDOWS KITS\10\LIB\10.0.18362.0\UM\X86\GDI32.LIB
C:\WINDOWS KITS\10\LIB\10.0.18362.0\UM\X86\WINSPOOL.LIB
C:\WINDOWS KITS\10\LIB\10.0.18362.0\UM\X86\COMDLG32.LIB
C:\WINDOWS KITS\10\LIB\10.0.18362.0\UM\X86\ADVAPI32.LIB
C:\WINDOWS KITS\10\LIB\10.0.18362.0\UM\X86\SHELL32.LIB
C:\WINDOWS KITS\10\LIB\10.0.18362.0\UM\X86\OLE32.LIB
C:\WINDOWS KITS\10\LIB\10.0.18362.0\UM\X86\OLEAUT32.LIB
C:\WINDOWS KITS\10\LIB\10.0.18362.0\UM\X86\UUID.LIB
C:\WINDOWS KITS\10\LIB\10.0.18362.0\UM\X86\ODBC32.LIB
C:\WINDOWS KITS\10\LIB\10.0.18362.0\UM\X86\ODBCCP32.LIB
C:\USERS\USER\SOURCE\REPOS\NEW_EXPETIMENTAL\NEW_EXPETIMENTAL\DEBUG\NEW_EXPETIMENTAL.OBJ
C:\WINDOWS\SYSTEM32\TZRES.DLL
C:\WINDOWS\GLOBALIZATION\SORTING\SORTDEFAULT.NLS
E:\VISUAL OCHKA\VC\TOOLS\MSVC\14.27.29110\LIB\X86\MSVCPRTD.LIB
E:\VISUAL OCHKA\VC\TOOLS\MSVC\14.27.29110\LIB\X86\MSVCRTD.LIB
E:\VISUAL OCHKA\VC\TOOLS\MSVC\14.27.29110\LIB\X86\OLDNAMES.LIB
E:\VISUAL OCHKA\VC\TOOLS\MSVC\14.27.29110\LIB\X86\VCRUNTIMED.LIB
C:\WINDOWS KITS\10\LIB\10.0.18362.0\UCRT\X86\UCRTD.LIB
E:\VISUAL OCHKA\VC\TOOLS\MSVC\14.27.29110\BIN\HOSTX86\X86\VCTIP.EXE
