^C:\USERS\USER\SOURCE\REPOS\NEW_EXPETIMENTAL\NEW_EXPETIMENTAL\NEW_EXPETIMENTAL.CPP
C:\WINDOWS\GLOBALIZATION\SORTING\SORTDEFAULT.NLS
E:\VISUAL OCHKA\VC\TOOLS\MSVC\14.27.29110\BIN\HOSTX86\X64\1049\CLUI.DLL
C:\WINDOWS\SYSTEM32\TZRES.DLL
E:\VISUAL OCHKA\VC\TOOLS\MSVC\14.27.29110\INCLUDE\IOSTREAM
E:\VISUAL OCHKA\VC\TOOLS\MSVC\14.27.29110\INCLUDE\YVALS_CORE.H
E:\VISUAL OCHKA\VC\TOOLS\MSVC\14.27.29110\INCLUDE\VCRUNTIME.H
E:\VISUAL OCHKA\VC\TOOLS\MSVC\14.27.29110\INCLUDE\SAL.H
E:\VISUAL OCHKA\VC\TOOLS\MSVC\14.27.29110\INCLUDE\CONCURRENCYSAL.H
E:\VISUAL OCHKA\VC\TOOLS\MSVC\14.27.29110\INCLUDE\VADEFS.H
E:\VISUAL OCHKA\VC\TOOLS\MSVC\14.27.29110\INCLUDE\XKEYCHECK.H
E:\VISUAL OCHKA\VC\TOOLS\MSVC\14.27.29110\INCLUDE\ISTREAM
E:\VISUAL OCHKA\VC\TOOLS\MSVC\14.27.29110\INCLUDE\OSTREAM
E:\VISUAL OCHKA\VC\TOOLS\MSVC\14.27.29110\INCLUDE\IOS
E:\VISUAL OCHKA\VC\TOOLS\MSVC\14.27.29110\INCLUDE\XLOCNUM
E:\VISUAL OCHKA\VC\TOOLS\MSVC\14.27.29110\INCLUDE\CLIMITS
E:\VISUAL OCHKA\VC\TOOLS\MSVC\14.27.29110\INCLUDE\LIMITS.H
E:\VISUAL OCHKA\VC\TOOLS\MSVC\14.27.29110\INCLUDE\CMATH
E:\VISUAL OCHKA\VC\TOOLS\MSVC\14.27.29110\INCLUDE\YVALS.H
C:\WINDOWS KITS\10\INCLUDE\10.0.18362.0\UCRT\CRTDBG.H
C:\WINDOWS KITS\10\INCLUDE\10.0.18362.0\UCRT\CORECRT.H
E:\VISUAL OCHKA\VC\TOOLS\MSVC\14.27.29110\INCLUDE\VCRUNTIME_NEW_DEBUG.H
E:\VISUAL OCHKA\VC\TOOLS\MSVC\14.27.29110\INCLUDE\VCRUNTIME_NEW.H
E:\VISUAL OCHKA\VC\TOOLS\MSVC\14.27.29110\INCLUDE\CRTDEFS.H
E:\VISUAL OCHKA\VC\TOOLS\MSVC\14.27.29110\INCLUDE\USE_ANSI.H
E:\VISUAL OCHKA\VC\TOOLS\MSVC\14.27.29110\INCLUDE\CSTDLIB
C:\WINDOWS KITS\10\INCLUDE\10.0.18362.0\UCRT\MATH.H
C:\WINDOWS KITS\10\INCLUDE\10.0.18362.0\UCRT\CORECRT_MATH.H
C:\WINDOWS KITS\10\INCLUDE\10.0.18362.0\UCRT\STDLIB.H
C:\WINDOWS KITS\10\INCLUDE\10.0.18362.0\UCRT\CORECRT_MALLOC.H
C:\WINDOWS KITS\10\INCLUDE\10.0.18362.0\UCRT\CORECRT_SEARCH.H
C:\WINDOWS KITS\10\INCLUDE\10.0.18362.0\UCRT\STDDEF.H
C:\WINDOWS KITS\10\INCLUDE\10.0.18362.0\UCRT\CORECRT_WSTDLIB.H
E:\VISUAL OCHKA\VC\TOOLS\MSVC\14.27.29110\INCLUDE\XTR1COMMON
E:\VISUAL OCHKA\VC\TOOLS\MSVC\14.27.29110\INCLUDE\CSTDIO
C:\WINDOWS KITS\10\INCLUDE\10.0.18362.0\UCRT\STDIO.H
C:\WINDOWS KITS\10\INCLUDE\10.0.18362.0\UCRT\CORECRT_WSTDIO.H
C:\WINDOWS KITS\10\INCLUDE\10.0.18362.0\UCRT\CORECRT_STDIO_CONFIG.H
E:\VISUAL OCHKA\VC\TOOLS\MSVC\14.27.29110\INCLUDE\ITERATOR
E:\VISUAL OCHKA\VC\TOOLS\MSVC\14.27.29110\INCLUDE\IOSFWD
E:\VISUAL OCHKA\VC\TOOLS\MSVC\14.27.29110\INCLUDE\CSTRING
C:\WINDOWS KITS\10\INCLUDE\10.0.18362.0\UCRT\STRING.H
C:\WINDOWS KITS\10\INCLUDE\10.0.18362.0\UCRT\CORECRT_MEMORY.H
C:\WINDOWS KITS\10\INCLUDE\10.0.18362.0\UCRT\CORECRT_MEMCPY_S.H
C:\WINDOWS KITS\10\INCLUDE\10.0.18362.0\UCRT\ERRNO.H
E:\VISUAL OCHKA\VC\TOOLS\MSVC\14.27.29110\INCLUDE\VCRUNTIME_STRING.H
C:\WINDOWS KITS\10\INCLUDE\10.0.18362.0\UCRT\CORECRT_WSTRING.H
E:\VISUAL OCHKA\VC\TOOLS\MSVC\14.27.29110\INCLUDE\CWCHAR
C:\WINDOWS KITS\10\INCLUDE\10.0.18362.0\UCRT\WCHAR.H
C:\WINDOWS KITS\10\INCLUDE\10.0.18362.0\UCRT\CORECRT_WCONIO.H
C:\WINDOWS KITS\10\INCLUDE\10.0.18362.0\UCRT\CORECRT_WCTYPE.H
C:\WINDOWS KITS\10\INCLUDE\10.0.18362.0\UCRT\CORECRT_WDIRECT.H
C:\WINDOWS KITS\10\INCLUDE\10.0.18362.0\UCRT\CORECRT_WIO.H
C:\WINDOWS KITS\10\INCLUDE\10.0.18362.0\UCRT\CORECRT_SHARE.H
C:\WINDOWS KITS\10\INCLUDE\10.0.18362.0\UCRT\CORECRT_WPROCESS.H
C:\WINDOWS KITS\10\INCLUDE\10.0.18362.0\UCRT\CORECRT_WTIME.H
C:\WINDOWS KITS\10\INCLUDE\10.0.18362.0\UCRT\SYS\STAT.H
C:\WINDOWS KITS\10\INCLUDE\10.0.18362.0\UCRT\SYS\TYPES.H
E:\VISUAL OCHKA\VC\TOOLS\MSVC\14.27.29110\INCLUDE\XSTDDEF
E:\VISUAL OCHKA\VC\TOOLS\MSVC\14.27.29110\INCLUDE\CSTDDEF
E:\VISUAL OCHKA\VC\TOOLS\MSVC\14.27.29110\INCLUDE\INITIALIZER_LIST
E:\VISUAL OCHKA\VC\TOOLS\MSVC\14.27.29110\INCLUDE\XUTILITY
E:\VISUAL OCHKA\VC\TOOLS\MSVC\14.27.29110\INCLUDE\UTILITY
E:\VISUAL OCHKA\VC\TOOLS\MSVC\14.27.29110\INCLUDE\TYPE_TRAITS
E:\VISUAL OCHKA\VC\TOOLS\MSVC\14.27.29110\INCLUDE\STREAMBUF
E:\VISUAL OCHKA\VC\TOOLS\MSVC\14.27.29110\INCLUDE\XIOSBASE
C:\WINDOWS KITS\10\INCLUDE\10.0.18362.0\UCRT\SHARE.H
E:\VISUAL OCHKA\VC\TOOLS\MSVC\14.27.29110\INCLUDE\SYSTEM_ERROR
E:\VISUAL OCHKA\VC\TOOLS\MSVC\14.27.29110\INCLUDE\__MSVC_SYSTEM_ERROR_ABI.HPP
E:\VISUAL OCHKA\VC\TOOLS\MSVC\14.27.29110\INCLUDE\CERRNO
E:\VISUAL OCHKA\VC\TOOLS\MSVC\14.27.29110\INCLUDE\STDEXCEPT
E:\VISUAL OCHKA\VC\TOOLS\MSVC\14.27.29110\INCLUDE\EXCEPTION
C:\WINDOWS KITS\10\INCLUDE\10.0.18362.0\UCRT\MALLOC.H
E:\VISUAL OCHKA\VC\TOOLS\MSVC\14.27.29110\INCLUDE\VCRUNTIME_EXCEPTION.H
E:\VISUAL OCHKA\VC\TOOLS\MSVC\14.27.29110\INCLUDE\EH.H
C:\WINDOWS KITS\10\INCLUDE\10.0.18362.0\UCRT\CORECRT_TERMINATE.H
E:\VISUAL OCHKA\VC\TOOLS\MSVC\14.27.29110\INCLUDE\XSTRING
E:\VISUAL OCHKA\VC\TOOLS\MSVC\14.27.29110\INCLUDE\XMEMORY
E:\VISUAL OCHKA\VC\TOOLS\MSVC\14.27.29110\INCLUDE\CSTDINT
E:\VISUAL OCHKA\VC\TOOLS\MSVC\14.27.29110\INCLUDE\STDINT.H
E:\VISUAL OCHKA\VC\TOOLS\MSVC\14.27.29110\INCLUDE\LIMITS
E:\VISUAL OCHKA\VC\TOOLS\MSVC\14.27.29110\INCLUDE\CFLOAT
C:\WINDOWS KITS\10\INCLUDE\10.0.18362.0\UCRT\FLOAT.H
E:\VISUAL OCHKA\VC\TOOLS\MSVC\14.27.29110\INCLUDE\NEW
E:\VISUAL OCHKA\VC\TOOLS\MSVC\14.27.29110\INCLUDE\XATOMIC.H
E:\VISUAL OCHKA\VC\TOOLS\MSVC\14.27.29110\INCLUDE\INTRIN0.H
E:\VISUAL OCHKA\VC\TOOLS\MSVC\14.27.29110\INCLUDE\XCALL_ONCE.H
E:\VISUAL OCHKA\VC\TOOLS\MSVC\14.27.29110\INCLUDE\XERRC.H
E:\VISUAL OCHKA\VC\TOOLS\MSVC\14.27.29110\INCLUDE\ATOMIC
E:\VISUAL OCHKA\VC\TOOLS\MSVC\14.27.29110\INCLUDE\XLOCALE
E:\VISUAL OCHKA\VC\TOOLS\MSVC\14.27.29110\INCLUDE\MEMORY
E:\VISUAL OCHKA\VC\TOOLS\MSVC\14.27.29110\INCLUDE\TYPEINFO
E:\VISUAL OCHKA\VC\TOOLS\MSVC\14.27.29110\INCLUDE\VCRUNTIME_TYPEINFO.H
E:\VISUAL OCHKA\VC\TOOLS\MSVC\14.27.29110\INCLUDE\XFACET
E:\VISUAL OCHKA\VC\TOOLS\MSVC\14.27.29110\INCLUDE\XLOCINFO
E:\VISUAL OCHKA\VC\TOOLS\MSVC\14.27.29110\INCLUDE\XLOCINFO.H
C:\WINDOWS KITS\10\INCLUDE\10.0.18362.0\UCRT\CTYPE.H
C:\WINDOWS KITS\10\INCLUDE\10.0.18362.0\UCRT\LOCALE.H
